%YAML 1.1
%TAG !u! tag:unity3d.com,2011:
--- !u!114 &11400000
MonoBehaviour:
  m_ObjectHideFlags: 0
  m_PrefabParentObject: {fileID: 0}
  m_PrefabInternal: {fileID: 0}
  m_GameObject: {fileID: 0}
  m_Enabled: 1
  m_EditorHideFlags: 0
  m_Script: {fileID: 11500000, guid: ed013ebe21e045741a2cbf65e1e38cf2, type: 3}
  m_Name: NovaUIConfig
  m_EditorClassIdentifier: 
  UXValues:
  - ConfigType: 0
    ArenaScale: 1
    HoverDistanceY: 480
    HoverScale: 2.6
    DragUpThreshold: 30
    DragArrowThreshold: 15
    ZoomHandHoverDistanceY: 400
    ZoomHandHoverScale: 1.75
    ZoomHandDragUpThreshold: 30
    ZoomHandDragArrowThreshold: 15
  - ConfigType: 1
    ArenaScale: 0.75
    HoverDistanceY: 480
    HoverScale: 2.6
    DragUpThreshold: 30
    DragArrowThreshold: 15
    ZoomHandHoverDistanceY: 550
    ZoomHandHoverScale: 2
    ZoomHandDragUpThreshold: 30
    ZoomHandDragArrowThreshold: 15
  - ConfigType: 2
    ArenaScale: 1
    HoverDistanceY: 400
    HoverScale: 2
    DragUpThreshold: 30
    DragArrowThreshold: 15
    ZoomHandHoverDistanceY: 550
    ZoomHandHoverScale: 2
    ZoomHandDragUpThreshold: 30
    ZoomHandDragArrowThreshold: 15
  - ConfigType: 3
    ArenaScale: 1
    HoverDistanceY: 310
    HoverScale: 1.75
    DragUpThreshold: 30
    DragArrowThreshold: 15
    ZoomHandHoverDistanceY: 340
    ZoomHandHoverScale: 1.6
    ZoomHandDragUpThreshold: 30
    ZoomHandDragArrowThreshold: 15
  - ConfigType: 4
    ArenaScale: 0.75
    HoverDistanceY: 325
    HoverScale: 1.5
    DragUpThreshold: 30
    DragArrowThreshold: 15
    ZoomHandHoverDistanceY: 500
    ZoomHandHoverScale: 1.6
    ZoomHandDragUpThreshold: 30
    ZoomHandDragArrowThreshold: 15
  - ConfigType: 5
    ArenaScale: 1
    HoverDistanceY: 325
    HoverScale: 1.5
    DragUpThreshold: 30
    DragArrowThreshold: 15
    ZoomHandHoverDistanceY: 500
    ZoomHandHoverScale: 1.6
    ZoomHandDragUpThreshold: 30
    ZoomHandDragArrowThreshold: 15
  CardPrefab: {fileID: 11400078, guid: 24021300792bb4761af33b5da6130835, type: 2}
  _Standard_CardListItemPrefab: {fileID: 11400012, guid: 1a2ca377c24254d868ff4f109c36b401,
    type: 2}
  _Phone_CardListItemPrefab: {fileID: 11402510, guid: 41f9d476c6f961141b0d9e2f17aac19f,
    type: 2}
  _Standard_CardListItemProxyPrefab: {fileID: 114277558963391864, guid: 9a1c4a951ca504e36b6d49dbb9437b68,
    type: 2}
  _Phone_CardListItemProxyPrefab: {fileID: 114277558963391864, guid: 628f9bb8f705f41d697134eec2fce35d,
    type: 2}
  _Standard_DeckListItemPrefab: {fileID: 11400024, guid: 7e1be6fa241dd433bb329c8a6d52489c,
    type: 2}
  _Phone_DeckListItemPrefab: {fileID: 11400024, guid: 7e1be6fa241dd433bb329c8a6d52489c,
    type: 2}
  _PooledFxPrefab: {fileID: 11467282, guid: a6b4ed51d13122344aa2c26e934cbfc8, type: 2}
  _PooledTrailFxPrefab: {fileID: 114616715510311880, guid: ea8b7a5a37661424fbe9724e467ba2eb,
    type: 2}
  FriendListItemPrefab: {fileID: 11403576, guid: 02d38d1f387f24bc386cf8ff36fa3436,
    type: 2}
  _GlobalChatPrefab: {fileID: 114545821221271492, guid: fdd79a943d5cf3742b08eb768456964b,
    type: 2}
  StoreItemPrefab: {fileID: 114528053086456596, guid: c2a43b7f763222b49a1e1b4417cda02f,
    type: 2}
  DraggableCardPrefab: {fileID: 11474732, guid: 6696c017960aa2f4db97a32268583928,
    type: 2}
  DraggedCardPrefab: {fileID: 11472480, guid: 971d639a47cd6964baa182f530eed9ee, type: 2}
  DragOverlayPrefab: {fileID: 11442294, guid: 97a1b582f5b440e408692d8e403d76b2, type: 2}
  TwoTouchOverlayPrefab: {fileID: 11407890, guid: 8ce87576d52fa304fa1ece2a5d8f1c51,
    type: 2}
  AchievementPrefab: {fileID: 11422326, guid: 28c4e4c47d297aa479f6fd1d340b7cc5, type: 2}
  QuestPrefab: {fileID: 114252386897451628, guid: 63acddec66702694ebd808e51876117d,
    type: 2}
  LeaderboardPrefab: {fileID: 11491262, guid: a6dd239b03aee0048afcc4d9f12216e3, type: 2}
  CardPoolSize: 30
  UIObjectPoolSize: 30
  FXObjectPoolSize: 6
  AvatarItemPrefab: {fileID: 11479720, guid: 92aa15c10b744664c8db478d1616088d, type: 2}
  PlayerCardPrefab: {fileID: 11494620, guid: 3680e2f4705e82b44a739e889280b9b2, type: 2}
  CardBackViewPrefab: {fileID: 11476330, guid: 67e369f1e8d18a44bbc1ec8edab4cc10, type: 2}
  GrayscaleMaterial: {fileID: 2100000, guid: 31c37d730b672b04d9e07a87cc3a0a0f, type: 2}
  IsSmallScreen: 0
  SmallScreenThreshold: 7.5
