%YAML 1.1
%TAG !u! tag:unity3d.com,2011:
--- !u!74 &7400000
AnimationClip:
  m_ObjectHideFlags: 0
  m_PrefabParentObject: {fileID: 0}
  m_PrefabInternal: {fileID: 0}
  m_Name: DamageFxShowFast
  serializedVersion: 4
  m_AnimationType: 2
  m_Compressed: 0
  m_UseHighQualityCurve: 1
  m_RotationCurves: []
  m_CompressedRotationCurves: []
  m_PositionCurves: []
  m_ScaleCurves:
  - curve:
      serializedVersion: 2
      m_Curve:
      - time: .366666675
        value: {x: 1, y: .999999881, z: 1}
        inSlope: {x: 0, y: 0, z: 0}
        outSlope: {x: 0, y: 0, z: 0}
        tangentMode: 151708988
      m_PreInfinity: 2
      m_PostInfinity: 2
    path: 
  m_FloatCurves:
  - curve:
      serializedVersion: 2
      m_Curve:
      - time: 0
        value: 0
        inSlope: 0
        outSlope: 0
        tangentMode: 0
      - time: .333333343
        value: 0
        inSlope: 0
        outSlope: 0
        tangentMode: 0
      - time: .366666675
        value: 1
        inSlope: 0
        outSlope: 0
        tangentMode: 0
      - time: 1
        value: 1
        inSlope: 0
        outSlope: 0
        tangentMode: 0
      - time: 1.08333337
        value: 0
        inSlope: -11.9999943
        outSlope: -11.9999943
        tangentMode: 10
      m_PreInfinity: 2
      m_PostInfinity: 2
    attribute: m_Alpha
    path: 
    classID: 225
    script: {fileID: 0}
  - curve:
      serializedVersion: 2
      m_Curve:
      - time: .366666675
        value: 120
        inSlope: 428.571503
        outSlope: 428.571503
        tangentMode: 10
      - time: .483333319
        value: 170
        inSlope: .000106811523
        outSlope: .000106811523
        tangentMode: 10
      - time: .600000024
        value: 120
        inSlope: -85.7141571
        outSlope: -85.7141571
        tangentMode: 10
      - time: .716666639
        value: 150
        inSlope: -21.4284821
        outSlope: -21.4284821
        tangentMode: 10
      - time: .816666663
        value: 120
        inSlope: -299.999939
        outSlope: -299.999939
        tangentMode: 10
      m_PreInfinity: 2
      m_PostInfinity: 2
    attribute: m_SizeDelta.x
    path: 
    classID: 224
    script: {fileID: 0}
  - curve:
      serializedVersion: 2
      m_Curve:
      - time: .366666675
        value: 120
        inSlope: 428.571503
        outSlope: 428.571503
        tangentMode: 10
      - time: .483333319
        value: 170
        inSlope: .000106811523
        outSlope: .000106811523
        tangentMode: 10
      - time: .600000024
        value: 120
        inSlope: -85.7141571
        outSlope: -85.7141571
        tangentMode: 10
      - time: .716666639
        value: 150
        inSlope: -21.4284821
        outSlope: -21.4284821
        tangentMode: 10
      - time: .816666663
        value: 120
        inSlope: -299.999939
        outSlope: -299.999939
        tangentMode: 10
      m_PreInfinity: 2
      m_PostInfinity: 2
    attribute: m_SizeDelta.y
    path: 
    classID: 224
    script: {fileID: 0}
  m_PPtrCurves: []
  m_SampleRate: 60
  m_WrapMode: 0
  m_Bounds:
    m_Center: {x: 0, y: 0, z: 0}
    m_Extent: {x: 0, y: 0, z: 0}
  m_ClipBindingConstant:
    genericBindings:
    - path: 0
      attribute: 1574349066
      script: {fileID: 0}
      classID: 225
      customType: 0
      isPPtrCurve: 0
    - path: 0
      attribute: 1967290853
      script: {fileID: 0}
      classID: 224
      customType: 0
      isPPtrCurve: 0
    - path: 0
      attribute: 38095219
      script: {fileID: 0}
      classID: 224
      customType: 0
      isPPtrCurve: 0
    - path: 0
      attribute: 3
      script: {fileID: 0}
      classID: 4
      customType: 0
      isPPtrCurve: 0
    pptrCurveMapping: []
  m_AnimationClipSettings:
    serializedVersion: 2
    m_StartTime: 0
    m_StopTime: 1.08333337
    m_OrientationOffsetY: 0
    m_Level: 0
    m_CycleOffset: 0
    m_LoopTime: 0
    m_LoopBlend: 0
    m_LoopBlendOrientation: 0
    m_LoopBlendPositionY: 0
    m_LoopBlendPositionXZ: 0
    m_KeepOriginalOrientation: 0
    m_KeepOriginalPositionY: 1
    m_KeepOriginalPositionXZ: 0
    m_HeightFromFeet: 0
    m_Mirror: 0
  m_EditorCurves:
  - curve:
      serializedVersion: 2
      m_Curve:
      - time: 0
        value: 0
        inSlope: 0
        outSlope: 0
        tangentMode: 0
      - time: .333333343
        value: 0
        inSlope: 0
        outSlope: 0
        tangentMode: 0
      - time: .366666675
        value: 1
        inSlope: 0
        outSlope: 0
        tangentMode: 0
      - time: 1
        value: 1
        inSlope: 0
        outSlope: 0
        tangentMode: 0
      - time: 1.08333337
        value: 0
        inSlope: -11.9999943
        outSlope: -11.9999943
        tangentMode: 10
      m_PreInfinity: 2
      m_PostInfinity: 2
    attribute: m_Alpha
    path: 
    classID: 225
    script: {fileID: 0}
  - curve:
      serializedVersion: 2
      m_Curve:
      - time: .366666675
        value: 1
        inSlope: 0
        outSlope: 0
        tangentMode: 10
      m_PreInfinity: 2
      m_PostInfinity: 2
    attribute: m_LocalScale.x
    path: 
    classID: 224
    script: {fileID: 0}
  - curve:
      serializedVersion: 2
      m_Curve:
      - time: .366666675
        value: .999999881
        inSlope: 0
        outSlope: 0
        tangentMode: 10
      m_PreInfinity: 2
      m_PostInfinity: 2
    attribute: m_LocalScale.y
    path: 
    classID: 224
    script: {fileID: 0}
  - curve:
      serializedVersion: 2
      m_Curve:
      - time: .366666675
        value: 1
        inSlope: 0
        outSlope: 0
        tangentMode: 10
      m_PreInfinity: 2
      m_PostInfinity: 2
    attribute: m_LocalScale.z
    path: 
    classID: 224
    script: {fileID: 0}
  - curve:
      serializedVersion: 2
      m_Curve:
      - time: .366666675
        value: 120
        inSlope: 428.571503
        outSlope: 428.571503
        tangentMode: 10
      - time: .483333319
        value: 170
        inSlope: .000106811523
        outSlope: .000106811523
        tangentMode: 10
      - time: .600000024
        value: 120
        inSlope: -85.7141571
        outSlope: -85.7141571
        tangentMode: 10
      - time: .716666639
        value: 150
        inSlope: -21.4284821
        outSlope: -21.4284821
        tangentMode: 10
      - time: .816666663
        value: 120
        inSlope: -299.999939
        outSlope: -299.999939
        tangentMode: 10
      m_PreInfinity: 2
      m_PostInfinity: 2
    attribute: m_SizeDelta.x
    path: 
    classID: 224
    script: {fileID: 0}
  - curve:
      serializedVersion: 2
      m_Curve:
      - time: .366666675
        value: 120
        inSlope: 428.571503
        outSlope: 428.571503
        tangentMode: 10
      - time: .483333319
        value: 170
        inSlope: .000106811523
        outSlope: .000106811523
        tangentMode: 10
      - time: .600000024
        value: 120
        inSlope: -85.7141571
        outSlope: -85.7141571
        tangentMode: 10
      - time: .716666639
        value: 150
        inSlope: -21.4284821
        outSlope: -21.4284821
        tangentMode: 10
      - time: .816666663
        value: 120
        inSlope: -299.999939
        outSlope: -299.999939
        tangentMode: 10
      m_PreInfinity: 2
      m_PostInfinity: 2
    attribute: m_SizeDelta.y
    path: 
    classID: 224
    script: {fileID: 0}
  m_EulerEditorCurves: []
  m_Events: []
