mtllib ArenaBackground.mtl
o ArenaBackground.obj
v 0.631504 -0.056066 0.000000
v 0.631504 0.532589 0.000000
v -0.631504 -0.056066 -0.000000
v -0.631504 0.532589 -0.000000
v -0.594916 -0.056066 -0.048773
v -0.594916 0.532589 -0.048773
v -0.551577 -0.056066 -0.095671
v -0.551577 0.532589 -0.095671
v -0.496406 -0.056066 -0.138893
v -0.496406 0.532589 -0.138893
v -0.422158 -0.056066 -0.176777
v -0.422158 0.532589 -0.176777
v -0.331688 -0.056066 -0.207867
v -0.331688 0.532589 -0.207867
v -0.228471 -0.056066 -0.230970
v -0.228471 0.532589 -0.230970
v -0.116473 -0.056066 -0.245196
v -0.116473 0.532589 -0.245196
v 0.000000 -0.056066 -0.250000
v 0.000000 0.532589 -0.250000
v 0.116473 -0.056066 -0.245196
v 0.116473 0.532589 -0.245196
v 0.228471 -0.056066 -0.230970
v 0.228471 0.532589 -0.230970
v 0.331688 -0.056066 -0.207867
v 0.331688 0.532589 -0.207867
v 0.422158 -0.056066 -0.176776
v 0.422158 0.532589 -0.176776
v 0.496406 -0.056066 -0.138892
v 0.496406 0.532589 -0.138892
v 0.551576 -0.056066 -0.095671
v 0.551576 0.532589 -0.095671
v 0.594915 -0.056066 -0.048772
v 0.594915 0.532589 -0.048772
vn -0.799923 0.000000 0.600102
vn -0.799923 0.000000 0.600102
vn 0.799929 0.000000 0.600095
vn 0.799929 0.000000 0.600095
vn 0.768183 0.000000 0.640231
vn 0.768183 0.000000 0.640231
vn 0.677739 0.000000 0.735303
vn 0.677739 0.000000 0.735303
vn 0.538096 0.000000 0.842883
vn 0.538096 0.000000 0.842883
vn 0.390716 0.000000 0.920511
vn 0.390716 0.000000 0.920511
vn 0.272127 0.000000 0.962261
vn 0.272127 0.000000 0.962261
vn 0.172405 0.000000 0.985026
vn 0.172405 0.000000 0.985026
vn 0.083686 0.000000 0.996492
vn 0.083686 0.000000 0.996492
vn -0.000000 0.000000 1.000000
vn -0.000000 0.000000 1.000000
vn -0.083686 0.000000 0.996492
vn -0.083686 0.000000 0.996492
vn -0.172406 0.000000 0.985026
vn -0.172406 0.000000 0.985026
vn -0.272127 0.000000 0.962261
vn -0.272127 0.000000 0.962261
vn -0.390716 0.000000 0.920511
vn -0.390716 0.000000 0.920511
vn -0.538097 0.000000 0.842883
vn -0.538097 0.000000 0.842883
vn -0.677740 0.000000 0.735302
vn -0.677740 0.000000 0.735302
vn -0.768180 0.000000 0.640234
vn -0.768180 0.000000 0.640234
vt 0.047512 0.998410
vt 0.004950 0.998410
vt 0.004950 0.001590
vt 0.047512 0.001590
vt 0.092089 0.998410
vt 0.092089 0.001590
vt 0.141013 0.998410
vt 0.141013 0.001590
vt 0.199200 0.998410
vt 0.199200 0.001590
vt 0.265980 0.998410
vt 0.265980 0.001590
vt 0.339815 0.998410
vt 0.339815 0.001590
vt 0.418625 0.998410
vt 0.418625 0.001590
vt 0.500000 0.998410
vt 0.500000 0.001590
vt 0.581375 0.998410
vt 0.581375 0.001590
vt 0.660185 0.998410
vt 0.660185 0.001590
vt 0.734020 0.998410
vt 0.734020 0.001590
vt 0.800800 0.998410
vt 0.800800 0.001590
vt 0.858987 0.998410
vt 0.858987 0.001590
vt 0.907911 0.998410
vt 0.907911 0.001590
vt 0.952487 0.998410
vt 0.952487 0.001590
vt 0.995050 0.998410
vt 0.995050 0.001590
g Cylinder
usemtl Default
f 6/1/6 4/2/4 3/3/3 5/4/5 
f 8/5/8 6/1/6 5/4/5 7/6/7 
f 10/7/10 8/5/8 7/6/7 9/8/9 
f 12/9/12 10/7/10 9/8/9 11/10/11 
f 14/11/14 12/9/12 11/10/11 13/12/13 
f 16/13/16 14/11/14 13/12/13 15/14/15 
f 18/15/18 16/13/16 15/14/15 17/16/17 
f 20/17/20 18/15/18 17/16/17 19/18/19 
f 22/19/22 20/17/20 19/18/19 21/20/21 
f 24/21/24 22/19/22 21/20/21 23/22/23 
f 26/23/26 24/21/24 23/22/23 25/24/25 
f 28/25/28 26/23/26 25/24/25 27/26/27 
f 30/27/30 28/25/28 27/26/27 29/28/29 
f 32/29/32 30/27/30 29/28/29 31/30/31 
f 34/31/34 32/29/32 31/30/31 33/32/33 
f 2/33/2 34/31/34 33/32/33 1/34/1 
