%YAML 1.1
%TAG !u! tag:unity3d.com,2011:
--- !u!74 &7400000
AnimationClip:
  m_ObjectHideFlags: 0
  m_PrefabParentObject: {fileID: 0}
  m_PrefabInternal: {fileID: 0}
  m_Name: TargetReticleDefault
  serializedVersion: 6
  m_Legacy: 0
  m_Compressed: 0
  m_UseHighQualityCurve: 1
  m_RotationCurves: []
  m_CompressedRotationCurves: []
  m_EulerCurves:
  - curve:
      serializedVersion: 2
      m_Curve:
      - time: 0
        value: {x: 0, y: 0, z: -30}
        inSlope: {x: 0, y: 0, z: 180}
        outSlope: {x: 0, y: 0, z: 180}
        tangentMode: 0
      - time: 0.16666667
        value: {x: 0, y: 0, z: 0}
        inSlope: {x: 0, y: 0, z: 180}
        outSlope: {x: 0, y: 0, z: 180}
        tangentMode: 0
      - time: 0.33333334
        value: {x: 0, y: 0, z: 30}
        inSlope: {x: 0, y: 0, z: 180}
        outSlope: {x: 0, y: 0, z: 180}
        tangentMode: 0
      - time: 0.5
        value: {x: 0, y: 0, z: 60}
        inSlope: {x: 0, y: 0, z: 180}
        outSlope: {x: 0, y: 0, z: 180}
        tangentMode: 0
      - time: 0.6666667
        value: {x: 0, y: 0, z: 90}
        inSlope: {x: 0, y: 0, z: 180.00002}
        outSlope: {x: 0, y: 0, z: 180.00002}
        tangentMode: 0
      - time: 0.8333333
        value: {x: 0, y: 0, z: 120}
        inSlope: {x: 0, y: 0, z: 180.00002}
        outSlope: {x: 0, y: 0, z: 180.00002}
        tangentMode: 0
      - time: 1
        value: {x: 0, y: 0, z: 150}
        inSlope: {x: 0, y: 0, z: 180.00002}
        outSlope: {x: 0, y: 0, z: 180.00002}
        tangentMode: 0
      - time: 1.1666666
        value: {x: 0, y: 0, z: 180}
        inSlope: {x: 0, y: 0, z: 179.99997}
        outSlope: {x: 0, y: 0, z: 179.99997}
        tangentMode: 0
      - time: 1.3333334
        value: {x: 0, y: 0, z: 210}
        inSlope: {x: 0, y: 0, z: 179.99991}
        outSlope: {x: 0, y: 0, z: 179.99991}
        tangentMode: 0
      m_PreInfinity: 2
      m_PostInfinity: 2
      m_RotationOrder: 4
    path: 
  m_PositionCurves: []
  m_ScaleCurves: []
  m_FloatCurves: []
  m_PPtrCurves: []
  m_SampleRate: 60
  m_WrapMode: 0
  m_Bounds:
    m_Center: {x: 0, y: 0, z: 0}
    m_Extent: {x: 0, y: 0, z: 0}
  m_ClipBindingConstant:
    genericBindings:
    - path: 0
      attribute: 4
      script: {fileID: 0}
      classID: 4
      customType: 14
      isPPtrCurve: 0
    pptrCurveMapping: []
  m_AnimationClipSettings:
    serializedVersion: 2
    m_AdditiveReferencePoseClip: {fileID: 0}
    m_AdditiveReferencePoseTime: 0
    m_StartTime: 0
    m_StopTime: 1.3333334
    m_OrientationOffsetY: 0
    m_Level: 0
    m_CycleOffset: 0
    m_HasAdditiveReferencePose: 0
    m_LoopTime: 1
    m_LoopBlend: 0
    m_LoopBlendOrientation: 0
    m_LoopBlendPositionY: 0
    m_LoopBlendPositionXZ: 0
    m_KeepOriginalOrientation: 0
    m_KeepOriginalPositionY: 1
    m_KeepOriginalPositionXZ: 0
    m_HeightFromFeet: 0
    m_Mirror: 0
  m_EditorCurves:
  - curve:
      serializedVersion: 2
      m_Curve:
      - time: 0
        value: 0
        inSlope: 0
        outSlope: 0
        tangentMode: 10
      - time: 0.16666667
        value: 0
        inSlope: 0
        outSlope: 0
        tangentMode: 10
      - time: 0.33333334
        value: 0
        inSlope: 0
        outSlope: 0
        tangentMode: 10
      - time: 0.5
        value: 0
        inSlope: 0
        outSlope: 0
        tangentMode: 10
      - time: 0.6666667
        value: 0
        inSlope: 0
        outSlope: 0
        tangentMode: 10
      - time: 0.8333333
        value: 0
        inSlope: 0
        outSlope: 0
        tangentMode: 10
      - time: 1
        value: 0
        inSlope: 0
        outSlope: 0
        tangentMode: 10
      - time: 1.1666666
        value: 0
        inSlope: 0
        outSlope: 0
        tangentMode: 10
      - time: 1.3333334
        value: 0
        inSlope: 0
        outSlope: 0
        tangentMode: 10
      m_PreInfinity: 2
      m_PostInfinity: 2
      m_RotationOrder: 4
    attribute: localEulerAnglesRaw.x
    path: 
    classID: 224
    script: {fileID: 0}
  - curve:
      serializedVersion: 2
      m_Curve:
      - time: 0
        value: 0
        inSlope: 0
        outSlope: 0
        tangentMode: 10
      - time: 0.16666667
        value: 0
        inSlope: 0
        outSlope: 0
        tangentMode: 10
      - time: 0.33333334
        value: 0
        inSlope: 0
        outSlope: 0
        tangentMode: 10
      - time: 0.5
        value: 0
        inSlope: 0
        outSlope: 0
        tangentMode: 10
      - time: 0.6666667
        value: 0
        inSlope: 0
        outSlope: 0
        tangentMode: 10
      - time: 0.8333333
        value: 0
        inSlope: 0
        outSlope: 0
        tangentMode: 10
      - time: 1
        value: 0
        inSlope: 0
        outSlope: 0
        tangentMode: 10
      - time: 1.1666666
        value: 0
        inSlope: 0
        outSlope: 0
        tangentMode: 10
      - time: 1.3333334
        value: 0
        inSlope: 0
        outSlope: 0
        tangentMode: 10
      m_PreInfinity: 2
      m_PostInfinity: 2
      m_RotationOrder: 4
    attribute: localEulerAnglesRaw.y
    path: 
    classID: 224
    script: {fileID: 0}
  - curve:
      serializedVersion: 2
      m_Curve:
      - time: 0
        value: -30
        inSlope: 180
        outSlope: 180
        tangentMode: 10
      - time: 0.16666667
        value: 0
        inSlope: 180
        outSlope: 180
        tangentMode: 10
      - time: 0.33333334
        value: 30
        inSlope: 180
        outSlope: 180
        tangentMode: 10
      - time: 0.5
        value: 60
        inSlope: 180
        outSlope: 180
        tangentMode: 10
      - time: 0.6666667
        value: 90
        inSlope: 180.00002
        outSlope: 180.00002
        tangentMode: 10
      - time: 0.8333333
        value: 120
        inSlope: 180.00002
        outSlope: 180.00002
        tangentMode: 10
      - time: 1
        value: 150
        inSlope: 180.00002
        outSlope: 180.00002
        tangentMode: 10
      - time: 1.1666666
        value: 180
        inSlope: 179.99997
        outSlope: 179.99997
        tangentMode: 10
      - time: 1.3333334
        value: 210
        inSlope: 179.99991
        outSlope: 179.99991
        tangentMode: 10
      m_PreInfinity: 2
      m_PostInfinity: 2
      m_RotationOrder: 4
    attribute: localEulerAnglesRaw.z
    path: 
    classID: 224
    script: {fileID: 0}
  m_EulerEditorCurves:
  - curve:
      serializedVersion: 2
      m_Curve: []
      m_PreInfinity: 2
      m_PostInfinity: 2
      m_RotationOrder: 4
    attribute: m_LocalEulerAngles.x
    path: 
    classID: 224
    script: {fileID: 0}
  - curve:
      serializedVersion: 2
      m_Curve: []
      m_PreInfinity: 2
      m_PostInfinity: 2
      m_RotationOrder: 4
    attribute: m_LocalEulerAngles.y
    path: 
    classID: 224
    script: {fileID: 0}
  - curve:
      serializedVersion: 2
      m_Curve: []
      m_PreInfinity: 2
      m_PostInfinity: 2
      m_RotationOrder: 4
    attribute: m_LocalEulerAngles.z
    path: 
    classID: 224
    script: {fileID: 0}
  m_HasGenericRootTransform: 1
  m_HasMotionFloatCurves: 0
  m_GenerateMotionCurves: 0
  m_Events: []
