%YAML 1.1
%TAG !u! tag:unity3d.com,2011:
--- !u!21 &2100000
Material:
  serializedVersion: 3
  m_ObjectHideFlags: 0
  m_PrefabParentObject: {fileID: 0}
  m_PrefabInternal: {fileID: 0}
  m_Name: highlight
  m_Shader: {fileID: 4800000, guid: 97a8fb7a40f707249bac0c203ef2d8ab, type: 3}
  m_ShaderKeywords: []
  m_CustomRenderQueue: -1
  m_SavedProperties:
    serializedVersion: 2
    m_TexEnvs:
      data:
        first:
          name: _DiffuseTexture
        second:
          m_Texture: {fileID: 2800000, guid: b5f08bd5bb9b05744bf21277eeab7c96, type: 3}
          m_Scale: {x: 1, y: 1}
          m_Offset: {x: 0, y: 0}
      data:
        first:
          name: _displacementMa
        second:
          m_Texture: {fileID: 2800000, guid: b5f08bd5bb9b05744bf21277eeab7c96, type: 3}
          m_Scale: {x: 1, y: 1}
          m_Offset: {x: 0, y: 0}
      data:
        first:
          name: _GlowTex
        second:
          m_Texture: {fileID: 2800000, guid: 820a38890d8f1f742b289b29927ffb3b, type: 3}
          m_Scale: {x: 1, y: 1}
          m_Offset: {x: 0, y: 0}
      data:
        first:
          name: _AlphaTex
        second:
          m_Texture: {fileID: 2800000, guid: 6e77d387966489d6cb6bb6ba39e09c45, type: 3}
          m_Scale: {x: 1, y: 1}
          m_Offset: {x: 0, y: 0}
      data:
        first:
          name: _GlowTex2
        second:
          m_Texture: {fileID: 2800000, guid: 0a70c16c7b47ab048bc9e03b588c24f6, type: 3}
          m_Scale: {x: 1, y: 1}
          m_Offset: {x: 0, y: 0}
      data:
        first:
          name: _node_2
        second:
          m_Texture: {fileID: 0}
          m_Scale: {x: 1, y: 1}
          m_Offset: {x: 0, y: 0}
    m_Floats:
      data:
        first:
          name: _Cutoff
        second: .5
      data:
        first:
          name: _speed
        second: .524379075
      data:
        first:
          name: _intensity
        second: 1.45631099
      data:
        first:
          name: _node_2132
        second: .189957023
      data:
        first:
          name: _node_100
        second: .54887259
      data:
        first:
          name: _node_2189
        second: 10
      data:
        first:
          name: _Seed
        second: 416.607147
      data:
        first:
          name: _intpower
        second: 1
    m_Colors:
      data:
        first:
          name: _GlowColour
        second: {r: .144247398, g: .852941215, b: .383737087, a: 1}
      data:
        first:
          name: _Colour2
        second: {r: .265854299, g: .845588207, b: .0373053513, a: 1}
      data:
        first:
          name: _Colour1
        second: {r: .0654195622, g: .808823526, b: .808823526, a: 1}
      data:
        first:
          name: _node_15
        second: {r: .5, g: .5, b: .5, a: 1}
      data:
        first:
          name: _node_35
        second: {r: 1, g: .862778783, b: .0955882072, a: 1}
      data:
        first:
          name: _node_41
        second: {r: .5, g: .5, b: .5, a: 1}
      data:
        first:
          name: _node_47
        second: {r: 1, g: .728397489, b: .242647097, a: 1}
