%YAML 1.1
%TAG !u! tag:unity3d.com,2011:
--- !u!21 &2100000
Material:
  serializedVersion: 3
  m_ObjectHideFlags: 0
  m_PrefabParentObject: {fileID: 0}
  m_PrefabInternal: {fileID: 0}
  m_Name: volumeticShader
  m_Shader: {fileID: 4800000, guid: 4f6c5c4a27c7cae4988ad776c83496f7, type: 3}
  m_ShaderKeywords: []
  m_CustomRenderQueue: -1
  m_SavedProperties:
    serializedVersion: 2
    m_TexEnvs:
      data:
        first:
          name: _RampTex
        second:
          m_Texture: {fileID: 2800000, guid: 271f5ee3273dd7f4fae6e204d4f8c4bf, type: 3}
          m_Scale: {x: 1, y: 1}
          m_Offset: {x: 0, y: 0}
      data:
        first:
          name: _DispTex
        second:
          m_Texture: {fileID: 2800000, guid: d6db2e67ee8bb734ab97724fd57dede1, type: 3}
          m_Scale: {x: 1, y: 1}
          m_Offset: {x: 0, y: 0}
    m_Floats:
      data:
        first:
          name: _Displacement
        second: .142857149
      data:
        first:
          name: _ClipRange
        second: .800000012
    m_Colors:
      data:
        first:
          name: _ChannelFactor
        second: {r: 1, g: 0, b: 0, a: 1}
      data:
        first:
          name: _Range
        second: {r: 0, g: .5, b: 0, a: 1}
